<svg width="32" height="32" viewBox="0 0 32 32" fill="none" xmlns="http://www.w3.org/2000/svg">
<path d="M28.0772 5H25.3805C25.0838 5 24.8411 5.243 24.8411 5.54C24.8411 5.837 25.0838 6.08 25.3805 6.08H28.0772C28.3738 6.08 28.6165 6.323 28.6165 6.62V20.498C28.6165 20.795 28.3738 21.038 28.0772 21.038H3.61802C3.32139 21.038 3.07868 20.795 3.07868 20.498V19.985L6.5844 16.475C6.80014 16.259 6.80014 15.908 6.5844 15.719C6.36867 15.503 6.01809 15.503 5.82933 15.719L3.07868 18.446V6.647C3.07868 6.35 3.32139 6.107 3.61802 6.107H11.0879L5.34392 11.831C5.12818 12.047 5.12818 12.398 5.34392 12.587C5.45179 12.695 5.58662 12.749 5.72146 12.749C5.85629 12.749 5.99113 12.695 6.099 12.587L12.4632 6.215C12.5172 6.161 12.5441 6.134 12.5711 6.08H20.5264C20.823 6.08 21.0657 5.837 21.0657 5.54C21.0657 5.243 20.823 5 20.5264 5H3.61802C2.72811 5 2 5.729 2 6.62V20.498C2 21.389 2.72811 22.118 3.61802 22.118H13.7846V23.63H11.9509C11.0609 23.63 10.3328 24.359 10.3328 25.25V26.33C10.3328 26.627 10.5755 26.87 10.8722 26.87H20.823C21.1197 26.87 21.3624 26.627 21.3624 26.33V25.25C21.3624 24.359 20.6343 23.63 19.7443 23.63H17.9106V22.118H28.0772C28.9671 22.118 29.6952 21.389 29.6952 20.498V6.647C29.6952 5.729 28.9671 5 28.0772 5ZM20.2837 25.277V25.817H11.4115V25.277C11.4115 24.98 11.6542 24.737 11.9509 24.737H19.7443C20.041 24.737 20.2837 24.98 20.2837 25.277ZM16.8319 23.657H14.8903V22.145H16.8319V23.657Z" fill="#C1CAD6"/>
<path d="M23.1692 6.10759C23.3041 6.10759 23.4389 6.05359 23.5468 5.94559C23.6546 5.83759 23.7086 5.70259 23.7086 5.56759C23.7086 5.43259 23.6546 5.29759 23.5468 5.18959C23.4389 5.08159 23.3041 5.02759 23.1692 5.02759C23.0344 5.02759 22.8996 5.08159 22.7917 5.18959C22.6838 5.29759 22.6299 5.43259 22.6299 5.56759C22.6299 5.70259 22.6838 5.83759 22.7917 5.94559C22.8726 6.02659 23.0074 6.10759 23.1692 6.10759Z" fill="#C1CAD6"/>
<path d="M20.7421 10.9127C20.4724 10.8047 20.1488 10.9127 20.0409 11.1827L18.6386 14.4227L17.1285 11.1827C16.9936 10.9127 16.67 10.8047 16.4004 10.9127C16.1307 11.0477 16.0228 11.3717 16.1307 11.6417L18.1532 15.9887C18.2341 16.1777 18.4229 16.3127 18.6386 16.3127C18.8544 16.3127 19.0431 16.1777 19.124 15.9887L21.0117 11.6417C21.1466 11.3447 21.0117 11.0207 20.7421 10.9127Z" fill="#C1CAD6"/>
<path d="M12.6521 16.286C12.9487 16.286 13.1915 16.043 13.1915 15.746V11.966H13.9735C14.2701 11.966 14.5128 11.723 14.5128 11.426C14.5128 11.129 14.2701 10.886 13.9735 10.886H11.3307C11.0341 10.886 10.7914 11.129 10.7914 11.426C10.7914 11.723 11.0341 11.966 11.3307 11.966H12.1128V15.746C12.1128 16.043 12.3555 16.286 12.6521 16.286Z" fill="#C1CAD6"/>
<path d="M7.36639 14.1801C7.25852 14.2881 7.20459 14.4231 7.20459 14.5581C7.20459 14.6931 7.25852 14.8281 7.36639 14.9361C7.47426 15.0441 7.6091 15.0981 7.74393 15.0981C7.87877 15.0981 8.0136 15.0441 8.12147 14.9361C8.22934 14.8281 8.28328 14.6931 8.28328 14.5581C8.28328 14.4231 8.22934 14.2881 8.12147 14.1801C8.0136 14.0721 7.87877 14.0181 7.74393 14.0181C7.6091 14.0181 7.44729 14.0721 7.36639 14.1801Z" fill="#C1CAD6"/>
</svg>
